{
    "alert": false,
    "archived": false,
    "blocked": false,
    "blocker": false,
    "broadcast": false,
    "e2ekey": "KEYS",
    "e2ekeyid": "eyJhbGciOiJB",
    "encrypted": true,
    "favorite": false,
    "fname": "test-add-user-ruqola",
    "jitsiTimeout": -1,
    "lastSeeAt": 1537889519424,
    "name": "test-add-user-ruqola",
    "notifications": {
        "audioNotificationValue": "",
        "audioNotifications": "",
        "desktopNotificationDuration": 0,
        "desktopNotifications": "",
        "disableNotifications": false,
        "emailNotifications": "",
        "hideUnreadStatus": false,
        "mobilePushNotifications": "",
        "muteGroupMentions": false,
        "unreadAlert": ""
    },
    "open": true,
    "rid": "qKRA72oktoCLKMkkf",
    "ro": false,
    "roomCreatorUserID": "xkNpoB3T98EEPCj2K",
    "roomCreatorUserName": "lili",
    "selected": false,
    "t": "p",
    "unread": 0,
    "updatedAt": 1537889519424,
    "userMentions": 0
}
