{
    "alert": false,
    "archived": false,
    "blocked": false,
    "blocker": false,
    "broadcast": false,
    "encrypted": false,
    "favorite": true,
    "fname": "",
    "jitsiTimeout": 1512990616994,
    "lastSeeAt": 1520852615485,
    "name": "all",
    "notifications": {
        "audioNotificationValue": "",
        "audioNotifications": "",
        "desktopNotificationDuration": 0,
        "desktopNotifications": "",
        "disableNotifications": false,
        "emailNotifications": "",
        "hideUnreadStatus": false,
        "mobilePushNotifications": "",
        "muteGroupMentions": false,
        "unreadAlert": ""
    },
    "open": true,
    "rid": "GENERAL",
    "ro": false,
    "roomCreatorUserID": "",
    "roomCreatorUserName": "",
    "selected": false,
    "t": "c",
    "unread": 0,
    "updatedAt": 1520852615485,
    "userMentions": 0
}
